module github.com/huseyinhilal/restapi

go 1.17

require (
	github.com/andybalholm/brotli v1.0.0 // indirect
	github.com/gofiber/fiber v1.14.6 // indirect
	github.com/gofiber/utils v0.0.10 // indirect
	github.com/gorilla/mux v1.8.0 // indirect
	github.com/gorilla/schema v1.1.0 // indirect
	github.com/klauspost/compress v1.10.7 // indirect
	github.com/mattn/go-colorable v0.1.7 // indirect
	github.com/mattn/go-isatty v0.0.12 // indirect
	github.com/valyala/bytebufferpool v1.0.0 // indirect
	github.com/valyala/fasthttp v1.16.0 // indirect
	github.com/valyala/tcplisten v0.0.0-20161114210144-ceec8f93295a // indirect
	golang.org/x/sys v0.0.0-20200602225109-6fdc65e7d980 // indirect
)
